Date,Day,Menu,Count
1/4/2019,Monday,pongal,1600
2/4/2019,Tuesday,dosa,1700
3/4/2019,Wednesday,bread,1800
4/4/2019,Thursday,idli,1850
5/4/2019,Friday,pongal,1550
6/4/2019,Saturday,poori,1570
7/4/2019,Sunday,uppma,1300
8/4/2019,Monday,pongal,1625
9/4/2019,Tuesday,dosa,1600
10/4/2019,Wednesday,bread,1550
11/4/2019,Thursday,idli,1700
12/4/2019,Friday,pongal,1450
13-04-2019,Saturday,poori,1675
14-04-2019,Sunday,uppma,1400
15-04-2019,Monday,pongal,1575
16-04-2019,Tuesday,dosa,1800
17-04-2019,Wednesday,bread,1750
18-04-2019,Thursday,idli,1890
19-04-2019,Friday,pongal,1500
20-04-2019,Saturday,poori,1550
21-04-2019,Sunday,uppma,1450
22-04-2019,Monday,pongal,1650
23-04-2019,Tuesday,dosa,1780
24-04-2019,Wednesday,bread,1680
25-04-2019,Thursday,idli,1900
26-04-2019,Friday,pongal,1840
27-04-2019,Saturday,poori,1500
28-04-2019,Sunday,uppma,1450
29-04-2019,Monday,pongal,1660
30-04-2019,Tuesday,dosa,1780
1/5/2019,Wednesday,bread,1550
2/5/2019,Thursday,idli,1850
3/5/2019,Friday,pongal,1750
4/5/2019,Saturday,poori,900
5/5/2019,Sunday,uppma,800
6/5/2019,Monday,pongal,900
7/5/2019,Tuesday,dosa,1100
8/5/2019,Wednesday,bread,1000
9/5/2019,Thursday,idli,800
10/5/2019,Friday,pongal,790
11/5/2019,Saturday,poori,800
12/5/2019,Sunday,uppma,750
13-05-2019,Monday,pongal,1600
14-05-2019,Tuesday,dosa,1750
15-05-2019,Wednesday,bread,1800
16-05-2019,Thursday,idli,1700
17-05-2019,Friday,pongal,1700
18-05-2019,Saturday,poori,1500
19-05-2019,Sunday,uppma,1600
20-05-2019,Monday,pongal,1700
21-05-2019,Tuesday,dosa,1650
22-05-2019,Wednesday,bread,1700
23-05-2019,Thursday,idli,1650
24-05-2019,Friday,pongal,1680
25-05-2019,Saturday,poori,1600
26-05-2019,Sunday,uppma,1500
27-05-2019,Monday,pongal,1600
28-05-2019,Tuesday,dosa,1760
29-05-2019,Wednesday,bread,1750
30-05-2019,Thursday,idli,1800
31-05-2019,Friday,pongal,1550
1/6/2019,Saturday,poori,1450
2/6/2019,Sunday,uppma,1430
3/6/2019,Monday,pongal,1600
4/6/2019,Tuesday,dosa,1680
5/6/2019,Wednesday,bread,1750
6/6/2019,Thursday,idli,1700
7/6/2019,Friday,pongal,1600
8/6/2019,Saturday,poori,1500
9/6/2019,Sunday,uppma,1480
10/6/2019,Monday,pongal,1700
11/6/2019,Tuesday,dosa,1750
12/6/2019,Wednesday,bread,1800
13-06-2019,Thursday,idli,1900
14-06-2019,Friday,pongal,1850
15-06-2019,Saturday,poori,1600
16-06-2019,Sunday,uppma,1580
17-06-2019,Monday,pongal,1700
18-06-2019,Tuesday,dosa,1750
19-06-2019,Wednesday,bread,1650
20-06-2019,Thursday,idli,1720
21-06-2019,Friday,pongal,1560
22-06-2019,Saturday,poori,1500
23-06-2019,Sunday,uppma,1500
24-06-2019,Monday,pongal,1400
25-06-2019,Tuesday,dosa,1350
26-06-2019,Wednesday,bread,1300
27-06-2019,Thursday,idli,1400
28-06-2019,Friday,pongal,1450
29-06-2019,Saturday,poori,1350
30-06-2019,Sunday,uppma,1300
1/7/2019,Monday,pongal,1400
2/7/2019,Tuesday,dosa,2000
3/7/2019,Wednesday,bread,1299
4/7/2019,Thursday,idli,1300
5/7/2019,Friday,pongal,1500
6/7/2019,Saturday,poori,1200
7/7/2019,Sunday,uppma,1200
8/7/2019,Monday,pongal,1200
9/7/2019,Tuesday,dosa,500
10/7/2019,Wednesday,bread,700
11/7/2019,Thursday,idli,900
12/7/2019,Friday,pongal,800
13-07-2019,Saturday,poori,800
14-07-2019,Sunday,uppma,600
15-07-2019,Monday,pongal,1520
16-07-2019,Tuesday,dosa,1680
17-07-2019,Wednesday,bread,1789
18-07-2019,Thursday,idli,1300
19-07-2019,Friday,pongal,1970
20-07-2019,Saturday,poori,1200
21-07-2019,Sunday,uppma,1230
22-07-2019,Monday,pongal,1200
23-07-2019,Tuesday,dosa,1320
24-07-2019,Wednesday,bread,1780
25-07-2019,Thursday,idli,1980
26-07-2019,Friday,pongal,1290
27-07-2019,Saturday,poori,1100
28-07-2019,Sunday,uppma,780
29-07-2019,Monday,pongal,1700
30-07-2019,Tuesday,dosa,1300
31-07-2019,Wednesday,bread,1200
1/8/2019,Thursday,idli,1500
2/8/2019,Friday,pongal,1650
3/8/2019,Saturday,poori,1300
4/8/2019,Sunday,uppma,1450
5/8/2019,Monday,pongal,1430
6/8/2019,Tuesday,dosa,1400
7/8/2019,Wednesday,bread,1230
8/8/2019,Thursday,idli,1500
9/8/2019,Friday,pongal,1200
10/8/2019,Saturday,poori,900
11/8/2109,Sunday,uppma,850
12/8/2019,Monday,pongal,850
13-08-2019,Tuesday,dosa,850
14-08-2019,Wednesday,bread,750
15-08-2019,Thursday,idli,730
16-08-2019,Friday,pongal,890
17-08-2019,Saturday,poori,680
18-08-2019,Sunday,uppma,680
19-08-2019,Monday,pongal,1800
20-08-2019,Tuesday,dosa,1700
21-08-2019,Wednesday,bread,1450
22-08-2019,Thursday,idli,1670
23-08-2019,Friday,pongal,1390
24-08-2019,Saturday,poori,800
25-08-2019,Sunday,uppma,900
26-08-2019,Monday,pongal,1490
27-08-2019,Tuesday,dosa,1590
28-08-2019,Wednesday,bread,1780
29-08-2019,Thursday,idli,1780
30-08-2019,Friday,pongal,1390
31-08-2019,Saturday,poori,1000
1/9/2019,Sunday,uppma,1159
2/9/2019,Monday,pongal,900
3/9/2019,Tuesday,dosa,850
4/9/2019,Wednesday,bread,930
5/9/2019,Thursday,idli,1000
6/9/2019,Friday,pongal,1000
7/9/2019,Saturday,poori,800
8/9/2019,Sunday,uppma,750
9/9/2019,Monday,pongal,1200
10/9/2019,Tuesday,dosa,1300
11/9/2019,Wednesday,bread,1400
12/9/2019,Thursday,idli,1540
13/9/2019,Friday,pongal,1760
14/9/2019,Saturday,poori,1200
15/9/2019,Sunday,uppma,1100
16/9/2019,Monday,pongal,1200
17/9/2019,Tuesday,dosa,1300
18/9/2019,Wednesday,bread,1450
19/9/2019,Thursday,idli,1300
20/9/2019,Friday,pongal,1200
21/9/2019,Saturday,poori,1100
22/9/2019,Sunday,uppma,1280
23/9/2019,Monday,pongal,1500
24/9/2019,Tuesday,dosa,1650
25/9/2019Monday,Wednesday,bread,1630
26/9/2019,Thursday,idli,1700
27/9/2019,Friday,pongal,1660
28/9/2019,Saturday,poori,1440
29/9/2019,Sunday,uppma,1500
30/9/2019,Monday,pongal,1700
1/10/2019,Tuesday,dosa,1600
2/10/2019,Wednesday,bread,1670
3/10/2019,Thursday,idli,1680
4/10/2019,Friday,pongal,1770
5/10/2019,Saturday,poori,1560
6/10/2019,Sunday,uppma,1500
7/10/2019,Monday,pongal,1789
8/10/2019,Tuesday,dosa,1768
9/10/2019,Wednesday,bread,1888
10/10/2019,Thursday,idli,1766
11/10/2019,Friday,pongal,1700
12/10/2019,Saturday,poori,1600
13/10/2019,Sunday,uppma,1550
14/10/2019,Monday,pongal,1679
15/10/2019,Tuesday,dosa,1786
16/10/2019,Wednesday,bread,1788
17/10/2019,Thursday,idli,1678
18/10/2019,Friday,pongal,1870
19/10/2019,Saturday,poori,1700
20/10/2019,Sunday,uppma,1677
21/10/2019,Monday,pongal,1789
22/10/2019,Tuesday,dosa,1678
23/10/2019,Wednesday,bread,1890
24/10/2019,Thursday,idli,1890
25/10/2019,Friday,pongal,1876
26/10/2019,Saturday,poori,1670
27/10/2019,Sunday,uppma,1600
28/10/2019,Monday,pongal,1780
29/10/2019,Tuesday,dosa,1890
30/10/2019,Thursday,bread,1789
31/10/2019,Friday,idli,1890
1/11/2019,Saturday,pongal,1678
2/11/2019,Sunday,poori,1500
3/11/2019,Monday,uppma,1560
4/11/2019,Tuesday,pongal,1789
5/11/2019,Wednesday,dosa,1768
6/11/2019,Thursday,bread,1987
7/11/2019,Friday,idli,1800
8/11/2019,Saturday,pongal,1788
9/11/2019,Sunday,poori,1790
10/11/2019,Monday,uppma,1700
11/11/2019,Tuesday,pongal,1600
12/11/2019,Wednesday,dosa,1879
13/11/2019,Thursday,bread,1876
14/11/2019,Friday,idli,1768
15/11/2019,Saturday,pongal,1876
16/11/2019,Sunday,poori,1760
17/11/2019,Monday,uppma,1678
18/11/2019,Tuesday,pongal,1600
19/11/2019,Wednesday,dosa,1789
20/11/2019,Thursday,bread,1787
21/11/2019,Friday,idli,1800
22/11/2019,Saturday,pongal,1780
23/11/2019,Sunday,poori,1578
24/11/2019,Monday,uppma,1500
25/11/2019,Tuesday,pongal,1879
26/11/2019,Wednesday,dosa,1786
27/11/2019,Thursday,bread,1987
28/11/2019,Friday,idli,1986
29/11/2019,Saturday,pongal,1888
30/11/2019,Sunday,poori,1766
1/12/2019,Monday,uppma,1745
2/12/2019,Tuesday,pongal,1877
3/12/2019,Wednesday,dosa,1989
4/12/2019,Thursday,bread,1789
5/12/2019,Friday,idli,1888
6/12/2019,Saturday,pongal,1788
7/12/2019,Sunday,poori,1908
8/12/2019,Monday,uppma,1900
9/12/2019,Tuesday,pongal,1898
10/12/2019,Wednesday,dosa,1989
11/12/2019,Thursday,bread,1988
12/12/2019,Friday,idli,1888
13/12/2019,Saturday,pongal,1700
14/12/2019,Sunday,poori,1780
15/12/2019,Monday,uppma,1600
16/12/2019,Tuesday,pongal,1500
17/12/2019,Wednesday,dosa,1200
18/12/2019,Thursday,bread,900
19/12/2019,Friday,idli,1100
20/12/2019,Saturday,pongal,1200
21/12/2019,Sunday,poori,1400
22/12/2019,Monday,uppma,1250
23/12/2019,Tuesday,pongal,1100
24/12/2019,Wednesday,dosa,1200
25/12/2019,Thursday,bread,1300
26/12/2019,Friday,idli,1260
27/12/2019,Saturday,pongal,1290
28/12/2019,Sunday,poori,800
29/12/2019,Monday,uppma,700
30/12/2019,Tuesday,pongal,900
31/12/2019,Wednesday,dosa,950
1/1/2020,Thursday,bread,1000
2/1/2020,Friday,idli,1200
3/1/2020,Saturday,pongal,900
4/1/2020,Sunday,uppma,870
5/1/2020,Monday,poori,1200
6/1/2020,Tuesday,dosa,1100
7/1/2020,Wednesday,bread,1000
8/1/2020,Thursday,idli,970
9/1/2020,Saturday,pongal,870
10/1/2020,Sunday,poori,750
11/1/2020,Monday,uppma,900
12/1/2020,Tuesday,pongal,1100
13/1/2020,Wednesday,dosa,1200
14/1/2020,Thursday,bread,1200
15/1/2020,Friday,idli,1100
16/1/2020,Saturday,pongal,1000
17/1/2020,Sunday,poori,900
18/1/2020,Monday,uppma,900
19/1/2020,Tuesday,pongal,860
20/1/2020,Wednesday,dosa,900
21/1/2020,Thursday,bread,1200
23/1/2020,Friday,idli,900
24/1/2020,Saturday,pongal,970
25/1/2020,Sunday,poori,650
26/1/2020,Monday,uppma,970
27/1/2020,Tuesday,pongal,1100
28/1/2020,Wednesday,dosa,1200
29/1/2020,Thursday,bread,960
30/1/2020,Friday,idli,870
31/1/2020,Saturday,pongal,900
1/2/2020,Sunday,poori,1200
2/2/2020,Monday,uppma,1300
3/2/2020,Tuesday,pongal,1250
4/2/2020,Wednesday,dosa,1100
5/2/2020,Thursday,bread,1000
6/2/2020,Friday,idli,1200
7/2/2020,Saturday,pongal,1000
8/2/2020,Sunday,poori,900
9/2/2020,Monday,uppma,850
10/1/2020,Tuesday,pongal,900
11/2/2020,Wednesday,dosa,1000
12/2/2020,Thursday,bread,980
13/2/2020,Friday,idli,1000
14/2/2020,Saturday,pongal,980
15/2/2020,Sunday,poori,980
16/2/2020,Monday,uppma,1000
17/2/2020,Tuesday,pongal,1200
18/2/2020,Wednesday,dosa,1300
19/2/2020,Thursday,bread,1400
20/2/2020,Friday,idli,1290
21/2/2020,Saturday,pongal,980
22/2/2020,Sunday,poori,980
23/2/2020,Monday,uppma,1200
24/2/2020,Tuesday,pongal,1300
25/2/2020,Wednesday,dosa,1200
26/2/2020,Thursday,bread,1100
27/2/2020,Friday,idli,980
28/2/2020,Saturday,pongal,870
29/2/2020,Sunday,poori,980
30/2/2020,Monday,uppma,1000
1/3/2020,Tuesday,pongal,1300
2/3/2020,Wednesday,dosa,1400
3/3/2020,Thursday,bread,980
4/3/2020,Friday,idli,980
5/3/2020,Saturday,pongal,980
6/3/2020,Sunday,poori,1000
7/3/2020,Monday,uppma,900
8/3/2020,Tuesday,pongal,1000
9/3/2020,Wednesday,dosa,970
10/3/2020,Thursday,bread,900
11/3/2020,Friday,idli,1000
12/3/2020,Saturday,pongal,1100
13/3/2020,Sunday,poori,1200
14/3/2020,Monday,uppma,1300
15/3/2020,Tuesday,pongal,980
16/3/2020,Wednesday,dosa,970
17/3/2020,Thursday,bread,1000
18/3/2020,Friday,idli,980
19/3/2020,Saturday,pongal,970
20/3/2020,Sunday,poori,970
21/3/2020,Monday,uppma,1100
22/3/2020,Tuesday,pongal,1000
23/3/2020,Wednesday,dosa,980
24/3/2029,Thursday,bread,1000
25/3/2020,Friday,idli,890
26/3/2020,Saturday,pongal,970
27/3/2020,Sunday,poori,1000
28/3/2020,Monday,uppma,1000
29/3/2020,Tuesday,pongal,980
30/3/2020,Wednesday,dosa,1000
32/3/2020,Thursday,pongal,1200
